00000000001A000000000012845
00000000002A000000000976334
00000000003A000000005206616
00000000004A000000000163644
00000000005A000000079901310
00000000006C000000016409001
00000000007A000000000166449
00000000008A000000064244773
00000000009C000494013910471
00000000010A000000031314081
00000000011A000000000009400
